{
    "posts": [
        {
            "id": "3",
            "parent": "0",
            "timestamp": "1617508079",
            "bumped": "1617508079",
            "name": "Anonymous",
            "tripcode": "",
            "subject": "",
            "message": "Jo: [sheep flies by in the storm while in Bill's truck] Sheep.<br>[sheep flies by in the storm]<br>Jo: another sheep.<br><br>Bill: Actually I think that was the same one.<br>",
            "file": "1617508079856.png",
            "file_hex": "2b40721e05cd9d29ec95ad35838a9653",
            "file_original": "twister.png",
            "file_size": "525720",
            "file_size_formated": "513.40KB",
            "image_width": "768",
            "image_height": "418",
            "thumb": "1617508079856s.png",
            "thumb_width": "250",
            "thumb_height": "136",
            "stickied": "0",
            "locked": "0",
            "replies": 0,
            "images": 1
        }
    ]
}